simulations/encode_test_1.vcd
$comment Generated by nMigen $end
$date 2019-06-17 03:34:12.789561 $end
$timescale 100 ps $end
$scope module top $end
$var wire 16 0 val_in $end
$var wire 1 1 valid_in $end
$var wire 5 2 ssss $end
$var wire 16 3 val_in$1 $end
$var wire 5 4 ssss$1 $end
$var wire 16 5 val_in$2 $end
$var wire 5 6 ssss$2 $end
$var wire 16 7 val_in$3 $end
$var wire 5 8 ssss$3 $end
$var wire 1 9 U0_rst $end
$var wire 1 a U0_clk $end
$var wire 16 b U0_val_in $end
$var wire 1 c U0_valid $end
$var wire 5 d U0_ssss $end
$var wire 5 e U4_mem_r_addr $end
$var wire 37 f U0_rp_data $end
$var wire 31 10 enc_out $end
$var wire 5 11 enc_ctr $end
$var wire 16 12 U1_val_in $end
$var wire 1 13 U1_valid $end
$var wire 5 14 U1_ssss $end
$var wire 5 15 U5_mem_r_addr $end
$var wire 37 16 U1_rp_data $end
$var wire 31 17 enc_out$1 $end
$var wire 5 18 enc_ctr$1 $end
$var wire 16 19 U2_val_in $end
$var wire 1 1a U2_valid $end
$var wire 5 1b U2_ssss $end
$var wire 5 1c U6_mem_r_addr $end
$var wire 37 1d U2_rp_data $end
$var wire 31 1e enc_out$2 $end
$var wire 5 1f enc_ctr$2 $end
$var wire 16 20 U3_val_in $end
$var wire 1 21 U3_valid $end
$var wire 5 22 U3_ssss $end
$var wire 5 23 U7_mem_r_addr $end
$var wire 37 24 U3_rp_data $end
$var wire 31 25 enc_out$3 $end
$var wire 5 26 enc_ctr$3 $end
$var wire 1 27 valid_late $end
$var wire 1 28 valid_out $end
$scope module U0 $end
$var wire 1 29 valid $end
$var wire 5 2a ssss $end
$var wire 16 2b val_in $end
$var wire 37 2c rp_data $end
$var wire 1 2d rst $end
$var wire 1 2e clk $end
$var wire 5 2f rp_addr $end
$var wire 31 30 enc_out $end
$var wire 5 31 enc_ctr $end
$var wire 1 32 valid_late $end
$var wire 5 33 ssss_late $end
$var wire 16 34 val_in_late $end
$upscope $end
$scope module U1 $end
$var wire 1 35 valid $end
$var wire 5 36 ssss $end
$var wire 16 37 val_in $end
$var wire 37 38 rp_data $end
$var wire 1 39 rst $end
$var wire 1 3a clk $end
$var wire 5 3b rp_addr $end
$var wire 31 3c enc_out $end
$var wire 5 3d enc_ctr $end
$var wire 1 3e valid_late $end
$var wire 5 3f ssss_late $end
$var wire 16 40 val_in_late $end
$upscope $end
$scope module U2 $end
$var wire 1 41 valid $end
$var wire 5 42 ssss $end
$var wire 16 43 val_in $end
$var wire 37 44 rp_data $end
$var wire 1 45 rst $end
$var wire 1 46 clk $end
$var wire 5 47 rp_addr $end
$var wire 31 48 enc_out $end
$var wire 5 49 enc_ctr $end
$var wire 1 4a valid_late $end
$var wire 5 4b ssss_late $end
$var wire 16 4c val_in_late $end
$upscope $end
$scope module U3 $end
$var wire 1 4d valid $end
$var wire 5 4e ssss $end
$var wire 16 4f val_in $end
$var wire 37 50 rp_data $end
$var wire 1 51 rst $end
$var wire 1 52 clk $end
$var wire 5 53 rp_addr $end
$var wire 31 54 enc_out $end
$var wire 5 55 enc_ctr $end
$var wire 1 56 valid_late $end
$var wire 5 57 ssss_late $end
$var wire 16 58 val_in_late $end
$upscope $end
$scope module U4 $end
$var wire 1 59 clk $end
$var wire 5 5a mem_r_addr $end
$var wire 37 5b mem_r_data $end
$var wire 1 5c rst $end
$var wire 5 5d latch_addr $end
$upscope $end
$scope module U5 $end
$var wire 1 5e clk $end
$var wire 5 5f mem_r_addr $end
$var wire 37 60 mem_r_data $end
$var wire 1 61 rst $end
$var wire 5 62 latch_addr $end
$upscope $end
$scope module U6 $end
$var wire 1 63 clk $end
$var wire 5 64 mem_r_addr $end
$var wire 37 65 mem_r_data $end
$var wire 1 66 rst $end
$var wire 5 67 latch_addr $end
$upscope $end
$scope module U7 $end
$var wire 1 68 clk $end
$var wire 5 69 mem_r_addr $end
$var wire 37 6a mem_r_data $end
$var wire 1 6b rst $end
$var wire 5 6c latch_addr $end
$upscope $end
$upscope $end
$enddefinitions $end
#0
$dumpvars
b0 0
01
b0 2
b0 3
b0 4
b0 5
b0 6
b0 7
b0 8
09
0a
b0 b
0c
b0 d
b0 e
b10000000000000000000000000000001110 f
b0 10
b0 11
b0 12
013
b0 14
b0 15
b10000000000000000000000000000001110 16
b0 17
b0 18
b0 19
01a
b0 1b
b0 1c
b10000000000000000000000000000001110 1d
b0 1e
b0 1f
b0 20
021
b0 22
b0 23
b10000000000000000000000000000001110 24
b0 25
b0 26
027
028
029
b0 2a
b0 2b
b10000000000000000000000000000001110 2c
02d
02e
b0 2f
b0 30
b0 31
032
b0 33
b0 34
035
b0 36
b0 37
b10000000000000000000000000000001110 38
039
03a
b0 3b
b0 3c
b0 3d
03e
b0 3f
b0 40
041
b0 42
b0 43
b10000000000000000000000000000001110 44
045
046
b0 47
b0 48
b0 49
04a
b0 4b
b0 4c
04d
b0 4e
b0 4f
b10000000000000000000000000000001110 50
051
052
b0 53
b0 54
b0 55
056
b0 57
b0 58
059
b0 5a
b10000000000000000000000000000001110 5b
05c
b0 5d
05e
b0 5f
b10000000000000000000000000000001110 60
061
b0 62
063
b0 64
b10000000000000000000000000000001110 65
066
b0 67
068
b0 69
b10000000000000000000000000000001110 6a
06b
b0 6c
$end
#50
12e
146
163
1a
15e
13a
168
152
159
#51
b1 3
b1 4
b10 5
b10 6
b11 7
b10 8
11
1c
129
b1 37
b1 12
113
135
b1 14
b1 36
b10 43
b10 19
11a
141
b10 1b
b10 42
b11 4f
b11 20
121
14d
b10 4e
b10 22
b1 3b
b10 47
b10 53
b1 5f
b1 15
b10 64
b10 1c
b10 23
b10 69
#100
02e
046
063
0a
05e
03a
068
052
059
#150
12e
146
163
1a
15e
13a
168
152
159
#151
b1 2
b10 4
b0 5
b11 8
127
132
13e
b1 3f
b1 40
14a
b10 4b
b10 4c
156
b10 57
b11 58
b1 62
b10 67
b10 6c
b1 d
b1 2a
b10 14
b10 36
b0 43
b0 19
b11 4e
b11 22
b1100000000000000000000000000000000 60
b1100000000000000000000000000000100 65
b1100000000000000000000000000000100 6a
b1100000000000000000000000000000000 38
b1100000000000000000000000000000000 16
b1100000000000000000000000000000100 1d
b1100000000000000000000000000000100 44
b1100000000000000000000000000000100 24
b1100000000000000000000000000000100 50
b1 2f
b10 3b
b11 53
b1 e
b1 5a
b10 5f
b10 15
b11 23
b11 69
#200
02e
046
063
0a
05e
03a
068
052
059
#249
12e
146
163
1a
15e
13a
168
152
159
#251
b1010 0
b100 2
b11001000 3
b1000 4
b101110111000 5
b1100 6
b1111111111111111 7
b10000 8
128
b1110 30
b100 31
b1 33
b1 3c
b100 3d
b10 3f
b110 48
b101 49
b0 4c
b111 54
b101 55
b11 57
b1 5d
b10 62
b11 6c
b1010 b
b1010 2b
b100 d
b100 2a
b1110 10
b100 11
b11001000 37
b11001000 12
b1000 14
b1000 36
b1 17
b100 18
b101110111000 43
b101110111000 19
b1100 1b
b1100 42
b110 1e
b101 1f
b1111111111111111 4f
b1111111111111111 20
b10000 4e
b10000 22
b111 25
b101 26
b1100000000000000000000000000000000 5b
b1100000000000000000000000000000100 60
b1100000000000000000000000000010000 6a
b1100000000000000000000000000000000 2c
b1100000000000000000000000000000000 f
b1100000000000000000000000000000100 38
b1100000000000000000000000000000100 16
b1100000000000000000000000000010000 24
b1100000000000000000000000000010000 50
b100 2f
b1000 3b
b1100 47
b10000 53
b100 e
b100 5a
b1000 5f
b1000 15
b1100 64
b1100 1c
b10000 23
b10000 69
#299
02e
046
063
0a
05e
03a
068
052
059
#349
12e
146
163
1a
15e
13a
168
152
159
#350
b101 0
b110111 3
b10001000111 5
b0 7
b0 30
b100 33
b1010 34
b101 3c
b101 3d
b1000 3f
b11001000 40
b100 48
b1100 4b
b101110111000 4c
b10011 54
b110 55
b10000 57
b1111111111111111 58
b100 5d
b1000 62
b1100 67
b10000 6c
b101 b
b101 2b
b0 10
b110111 37
b110111 12
b101 17
b101 18
b10001000111 43
b10001000111 19
b100 1e
b0 4f
b0 20
b10011 25
b110 26
b1100000000000000000000000000110000 5b
b10100000000000000000001111000000000 60
b100100000000000111111110000000000000 65
b110100000000000000000001111111111110 6a
b1100000000000000000000000000110000 2c
b1100000000000000000000000000110000 f
b10100000000000000000001111000000000 38
b10100000000000000000001111000000000 16
b100100000000000111111110000000000000 1d
b100100000000000111111110000000000000 44
b110100000000000000000001111111111110 24
b110100000000000000000001111111111110 50
#399
02e
046
063
0a
05e
03a
068
052
059
#449
12e
146
163
1a
15e
13a
168
152
159
#450
01
b111010 30
b111 31
b101 34
b1111011001000 3c
b1101 3d
b110111 40
b111111110101110111000 48
b10101 49
b10001000111 4c
b1111111111110 54
b1101 55
b0 58
0c
029
b111010 10
b111 11
013
035
b1111011001000 17
b1101 18
01a
041
b111111110101110111000 1e
b10101 1f
021
04d
b1111111111110 25
b1101 26
#499
02e
046
063
0a
05e
03a
068
052
059
#549
12e
146
163
1a
15e
13a
168
152
159
#550
027
b110101 30
032
b1111000110111 3c
03e
b111111110010001000111 48
04a
056
b110101 10
b1111000110111 17
b111111110010001000111 1e
#599
02e
046
063
0a
05e
03a
068
052
059
#650
12e
146
163
1a
15e
13a
168
152
159
028
