simulations/encode_test_1.vcd
$comment Generated by nMigen $end
$date 2019-08-24 07:05:50.349615 $end
$timescale 100 ps $end
$scope module top $end
$var wire 16 0 val_in $end
$var wire 1 1 end_in $end
$var wire 1 2 valid_in $end
$var wire 5 3 ssss $end
$var wire 16 4 val_in$1 $end
$var wire 5 5 ssss$1 $end
$var wire 16 6 val_in$2 $end
$var wire 5 7 ssss$2 $end
$var wire 16 8 val_in$3 $end
$var wire 5 9 ssss$3 $end
$var wire 1 a U0_rst $end
$var wire 1 b U0_clk $end
$var wire 16 c U0_val_in $end
$var wire 1 d U0_end_in $end
$var wire 1 e U0_valid_in $end
$var wire 5 f U0_ssss $end
$var wire 5 10 U4_mem_r_addr $end
$var wire 37 11 U0_rp_data $end
$var wire 31 12 enc_out $end
$var wire 5 13 enc_ctr $end
$var wire 16 14 U1_val_in $end
$var wire 1 15 U1_end_in $end
$var wire 1 16 U1_valid_in $end
$var wire 5 17 U1_ssss $end
$var wire 5 18 U5_mem_r_addr $end
$var wire 37 19 U1_rp_data $end
$var wire 31 1a enc_out$1 $end
$var wire 5 1b enc_ctr$1 $end
$var wire 16 1c U2_val_in $end
$var wire 1 1d U2_end_in $end
$var wire 1 1e U2_valid_in $end
$var wire 5 1f U2_ssss $end
$var wire 5 20 U6_mem_r_addr $end
$var wire 37 21 U2_rp_data $end
$var wire 31 22 enc_out$2 $end
$var wire 5 23 enc_ctr$2 $end
$var wire 16 24 U3_val_in $end
$var wire 1 25 U3_end_in $end
$var wire 1 26 U3_valid_in $end
$var wire 5 27 U3_ssss $end
$var wire 5 28 U7_mem_r_addr $end
$var wire 37 29 U3_rp_data $end
$var wire 31 2a enc_out$3 $end
$var wire 5 2b enc_ctr$3 $end
$var wire 1 2c valid_out $end
$var wire 1 2d end_out $end
$scope module U0 $end
$var wire 1 2e valid_in $end
$var wire 1 2f end_in $end
$var wire 5 30 ssss $end
$var wire 16 31 val_in $end
$var wire 37 32 rp_data $end
$var wire 1 33 rst $end
$var wire 1 34 clk $end
$var wire 1 35 valid_out $end
$var wire 1 36 end_out $end
$var wire 5 37 rp_addr $end
$var wire 31 38 enc_out $end
$var wire 5 39 enc_ctr $end
$var wire 1 3a valid_late $end
$var wire 1 3b end_late $end
$var wire 5 3c ssss_late $end
$var wire 16 3d val_in_late $end
$upscope $end
$scope module U1 $end
$var wire 1 3e valid_in $end
$var wire 1 3f end_in $end
$var wire 5 40 ssss $end
$var wire 16 41 val_in $end
$var wire 37 42 rp_data $end
$var wire 1 43 rst $end
$var wire 1 44 clk $end
$var wire 5 45 rp_addr $end
$var wire 31 46 enc_out $end
$var wire 5 47 enc_ctr $end
$var wire 1 48 valid_late $end
$var wire 1 49 valid_out $end
$var wire 1 4a end_late $end
$var wire 1 4b end_out $end
$var wire 5 4c ssss_late $end
$var wire 16 4d val_in_late $end
$upscope $end
$scope module U2 $end
$var wire 1 4e valid_in $end
$var wire 1 4f end_in $end
$var wire 5 50 ssss $end
$var wire 16 51 val_in $end
$var wire 37 52 rp_data $end
$var wire 1 53 rst $end
$var wire 1 54 clk $end
$var wire 5 55 rp_addr $end
$var wire 31 56 enc_out $end
$var wire 5 57 enc_ctr $end
$var wire 1 58 valid_late $end
$var wire 1 59 valid_out $end
$var wire 1 5a end_late $end
$var wire 1 5b end_out $end
$var wire 5 5c ssss_late $end
$var wire 16 5d val_in_late $end
$upscope $end
$scope module U3 $end
$var wire 1 5e valid_in $end
$var wire 1 5f end_in $end
$var wire 5 60 ssss $end
$var wire 16 61 val_in $end
$var wire 37 62 rp_data $end
$var wire 1 63 rst $end
$var wire 1 64 clk $end
$var wire 5 65 rp_addr $end
$var wire 31 66 enc_out $end
$var wire 5 67 enc_ctr $end
$var wire 1 68 valid_late $end
$var wire 1 69 valid_out $end
$var wire 1 6a end_late $end
$var wire 1 6b end_out $end
$var wire 5 6c ssss_late $end
$var wire 16 6d val_in_late $end
$upscope $end
$scope module U4 $end
$var wire 1 6e clk $end
$var wire 5 6f mem_r_addr $end
$var wire 37 70 mem_r_data $end
$var wire 1 71 rst $end
$var wire 5 72 latch_addr $end
$upscope $end
$scope module U5 $end
$var wire 1 73 clk $end
$var wire 5 74 mem_r_addr $end
$var wire 37 75 mem_r_data $end
$var wire 1 76 rst $end
$var wire 5 77 latch_addr $end
$upscope $end
$scope module U6 $end
$var wire 1 78 clk $end
$var wire 5 79 mem_r_addr $end
$var wire 37 7a mem_r_data $end
$var wire 1 7b rst $end
$var wire 5 7c latch_addr $end
$upscope $end
$scope module U7 $end
$var wire 1 7d clk $end
$var wire 5 7e mem_r_addr $end
$var wire 37 7f mem_r_data $end
$var wire 1 80 rst $end
$var wire 5 81 latch_addr $end
$upscope $end
$upscope $end
$enddefinitions $end
#0
$dumpvars
b0 0
01
02
b0 3
b0 4
b0 5
b0 6
b0 7
b0 8
b0 9
0a
0b
b0 c
0d
0e
b0 f
b0 10
b10000000000000000000000000000001110 11
b0 12
b0 13
b0 14
015
016
b0 17
b0 18
b10000000000000000000000000000001110 19
b0 1a
b0 1b
b0 1c
01d
01e
b0 1f
b0 20
b10000000000000000000000000000001110 21
b0 22
b0 23
b0 24
025
026
b0 27
b0 28
b10000000000000000000000000000001110 29
b0 2a
b0 2b
02c
02d
02e
02f
b0 30
b0 31
b10000000000000000000000000000001110 32
033
034
035
036
b0 37
b0 38
b0 39
03a
03b
b0 3c
b0 3d
03e
03f
b0 40
b0 41
b10000000000000000000000000000001110 42
043
044
b0 45
b0 46
b0 47
048
049
04a
04b
b0 4c
b0 4d
04e
04f
b0 50
b0 51
b10000000000000000000000000000001110 52
053
054
b0 55
b0 56
b0 57
058
059
05a
05b
b0 5c
b0 5d
05e
05f
b0 60
b0 61
b10000000000000000000000000000001110 62
063
064
b0 65
b0 66
b0 67
068
069
06a
06b
b0 6c
b0 6d
06e
b0 6f
b10000000000000000000000000000001110 70
071
b0 72
073
b0 74
b10000000000000000000000000000001110 75
076
b0 77
078
b0 79
b10000000000000000000000000000001110 7a
07b
b0 7c
07d
b0 7e
b10000000000000000000000000000001110 7f
080
b0 81
$end
#50
1b
17d
134
154
164
144
178
173
16e
#51
b1 4
b1 5
b10 6
b10 7
b11 8
b10 9
12
12e
1e
b1 14
b1 41
116
13e
b1 17
b1 40
b10 51
b10 1c
14e
11e
b10 50
b10 1f
b11 24
b11 61
15e
126
b10 60
b10 27
b1 45
b10 55
b10 65
b1 74
b1 18
b10 20
b10 79
b10 28
b10 7e
#100
0b
07d
034
054
064
044
078
073
06e
#150
1b
17d
134
154
164
144
178
173
16e
#151
b1 3
b10 5
b0 6
b11 9
13a
148
b1 4c
b1 4d
158
b10 5c
b10 5d
168
b10 6c
b11 6d
b1 77
b10 7c
b10 81
b1 30
b1 f
b10 17
b10 40
b0 51
b0 1c
b11 60
b11 27
b1100000000000000000000000000000000 75
b1100000000000000000000000000000100 7a
b1100000000000000000000000000000100 7f
b1100000000000000000000000000000000 42
b1100000000000000000000000000000000 19
b1100000000000000000000000000000100 52
b1100000000000000000000000000000100 21
b1100000000000000000000000000000100 29
b1100000000000000000000000000000100 62
b1 37
b10 45
b11 65
b1 10
b1 6f
b10 74
b10 18
b11 28
b11 7e
#200
0b
07d
034
054
064
044
078
073
06e
#249
1b
17d
134
154
164
144
178
173
16e
#251
b1010 0
b100 3
b11001000 4
b1000 5
b101110111000 6
b1100 7
b1111111111111111 8
b10000 9
135
b1110 38
b100 39
b1 3c
b1 46
b100 47
149
b10 4c
b110 56
b101 57
159
b0 5d
b111 66
b101 67
169
b11 6c
b1 72
b10 77
b11 81
b1010 31
b1010 c
b100 30
b100 f
b1110 12
b100 13
b11001000 14
b11001000 41
b1000 17
b1000 40
b1 1a
b100 1b
b101110111000 51
b101110111000 1c
b1100 50
b1100 1f
b110 22
b101 23
b1111111111111111 24
b1111111111111111 61
b10000 60
b10000 27
b111 2a
b101 2b
12c
b1100000000000000000000000000000000 70
b1100000000000000000000000000000100 75
b1100000000000000000000000000010000 7f
b1100000000000000000000000000000000 11
b1100000000000000000000000000000000 32
b1100000000000000000000000000000100 42
b1100000000000000000000000000000100 19
b1100000000000000000000000000010000 29
b1100000000000000000000000000010000 62
b100 37
b1000 45
b1100 55
b10000 65
b100 10
b100 6f
b1000 74
b1000 18
b1100 20
b1100 79
b10000 28
b10000 7e
#299
0b
07d
034
054
064
044
078
073
06e
#349
1b
17d
134
154
164
144
178
173
16e
#350
b101 0
b110111 4
b10001000111 6
b0 8
b0 38
b100 3c
b1010 3d
b101 46
b101 47
b1000 4c
b11001000 4d
b100 56
b1100 5c
b101110111000 5d
b10011 66
b110 67
b10000 6c
b1111111111111111 6d
b100 72
b1000 77
b1100 7c
b10000 81
b101 31
b101 c
b0 12
b110111 14
b110111 41
b101 1a
b101 1b
b10001000111 51
b10001000111 1c
b100 22
b0 24
b0 61
b10011 2a
b110 2b
b1100000000000000000000000000110000 70
b10100000000000000000001111000000000 75
b100100000000000111111110000000000000 7a
b110100000000000000000001111111111110 7f
b1100000000000000000000000000110000 11
b1100000000000000000000000000110000 32
b10100000000000000000001111000000000 42
b10100000000000000000001111000000000 19
b100100000000000111111110000000000000 52
b100100000000000111111110000000000000 21
b110100000000000000000001111111111110 29
b110100000000000000000001111111111110 62
#399
0b
07d
034
054
064
044
078
073
06e
#449
1b
17d
134
154
164
144
178
173
16e
#450
02
b111010 38
b111 39
b101 3d
b1111011001000 46
b1101 47
b110111 4d
b111111110101110111000 56
b10101 57
b10001000111 5d
b1111111111110 66
b1101 67
b0 6d
02e
0e
b111010 12
b111 13
016
03e
b1111011001000 1a
b1101 1b
04e
01e
b111111110101110111000 22
b10101 23
05e
026
b1111111111110 2a
b1101 2b
#499
0b
07d
034
054
064
044
078
073
06e
#549
1b
17d
134
154
164
144
178
173
16e
#550
b110101 38
03a
b1111000110111 46
048
b111111110010001000111 56
058
068
b110101 12
b1111000110111 1a
b111111110010001000111 22
#599
0b
07d
034
054
064
044
078
073
06e
#650
1b
17d
134
154
164
144
178
173
16e
035
049
059
069
02c
