simulations/encode_test_1.vcd
$comment Generated by nMigen $end
$date 2019-06-06 02:39:13.900808 $end
$timescale 100 ps $end
$scope module top $end
$var wire 16 0 val_in1 $end
$var wire 1 1 valid_in $end
$var wire 5 2 ssss1 $end
$var wire 16 3 val_in2 $end
$var wire 5 4 ssss2 $end
$var wire 16 5 val_in3 $end
$var wire 5 6 ssss3 $end
$var wire 16 7 val_in4 $end
$var wire 5 8 ssss4 $end
$var wire 1 9 pixel1_rst $end
$var wire 1 a pixel1_clk $end
$var wire 16 b pixel1_val_in $end
$var wire 1 c pixel1_valid $end
$var wire 5 d pixel1_ssss $end
$var wire 31 e enc_out1 $end
$var wire 5 f enc_ctr1 $end
$var wire 16 10 pixel2_val_in $end
$var wire 1 11 pixel2_valid $end
$var wire 5 12 pixel2_ssss $end
$var wire 31 13 enc_out2 $end
$var wire 5 14 enc_ctr2 $end
$var wire 16 15 pixel3_val_in $end
$var wire 1 16 pixel3_valid $end
$var wire 5 17 pixel3_ssss $end
$var wire 31 18 enc_out3 $end
$var wire 5 19 enc_ctr3 $end
$var wire 16 1a pixel4_val_in $end
$var wire 1 1b pixel4_valid $end
$var wire 5 1c pixel4_ssss $end
$var wire 31 1d enc_out4 $end
$var wire 5 1e enc_ctr4 $end
$var wire 1 1f valid_late $end
$var wire 1 20 valid_out $end
$scope module pixel1 $end
$var wire 1 21 valid $end
$var wire 5 22 ssss $end
$var wire 16 23 val_in $end
$var wire 1 24 rst $end
$var wire 1 25 rp_clk $end
$var wire 31 26 enc_out $end
$var wire 5 27 enc_ctr $end
$var wire 1 28 valid_late $end
$var wire 5 29 ssss_late $end
$var wire 16 2a val_in_late $end
$var wire 5 2b rp_mem_r_addr $end
$scope module rp $end
$var wire 1 2c clk $end
$var wire 5 2d mem_r_addr $end
$var wire 21 2e mem_r_data $end
$var wire 1 2f rst $end
$var wire 5 30 latch_addr $end
$upscope $end
$upscope $end
$scope module pixel2 $end
$var wire 1 31 valid $end
$var wire 5 32 ssss $end
$var wire 16 33 val_in $end
$var wire 1 34 rst $end
$var wire 1 35 rp_clk $end
$var wire 31 36 enc_out $end
$var wire 5 37 enc_ctr $end
$var wire 1 38 valid_late $end
$var wire 5 39 ssss_late $end
$var wire 16 3a val_in_late $end
$var wire 5 3b rp_mem_r_addr $end
$scope module rp $end
$var wire 1 3c clk $end
$var wire 5 3d mem_r_addr $end
$var wire 21 3e mem_r_data $end
$var wire 1 3f rst $end
$var wire 5 40 latch_addr $end
$upscope $end
$upscope $end
$scope module pixel3 $end
$var wire 1 41 valid $end
$var wire 5 42 ssss $end
$var wire 16 43 val_in $end
$var wire 1 44 rst $end
$var wire 1 45 rp_clk $end
$var wire 31 46 enc_out $end
$var wire 5 47 enc_ctr $end
$var wire 1 48 valid_late $end
$var wire 5 49 ssss_late $end
$var wire 16 4a val_in_late $end
$var wire 5 4b rp_mem_r_addr $end
$scope module rp $end
$var wire 1 4c clk $end
$var wire 5 4d mem_r_addr $end
$var wire 21 4e mem_r_data $end
$var wire 1 4f rst $end
$var wire 5 50 latch_addr $end
$upscope $end
$upscope $end
$scope module pixel4 $end
$var wire 1 51 valid $end
$var wire 5 52 ssss $end
$var wire 16 53 val_in $end
$var wire 1 54 rst $end
$var wire 1 55 rp_clk $end
$var wire 31 56 enc_out $end
$var wire 5 57 enc_ctr $end
$var wire 1 58 valid_late $end
$var wire 5 59 ssss_late $end
$var wire 16 5a val_in_late $end
$var wire 5 5b rp_mem_r_addr $end
$scope module rp $end
$var wire 1 5c clk $end
$var wire 5 5d mem_r_addr $end
$var wire 21 5e mem_r_data $end
$var wire 1 5f rst $end
$var wire 5 60 latch_addr $end
$upscope $end
$upscope $end
$upscope $end
$enddefinitions $end
#0
$dumpvars
b0 0
01
b0 2
b0 3
b0 4
b0 5
b0 6
b0 7
b0 8
09
0a
b0 b
0c
b0 d
b0 e
b0 f
b0 10
011
b0 12
b0 13
b0 14
b0 15
016
b0 17
b0 18
b0 19
b0 1a
01b
b0 1c
b0 1d
b0 1e
01f
020
021
b0 22
b0 23
024
025
b0 26
b0 27
028
b0 29
b0 2a
b0 2b
02c
b0 2d
b111000100 2e
02f
b0 30
031
b0 32
b0 33
034
035
b0 36
b0 37
038
b0 39
b0 3a
b0 3b
03c
b0 3d
b111000100 3e
03f
b0 40
041
b0 42
b0 43
044
045
b0 46
b0 47
048
b0 49
b0 4a
b0 4b
04c
b0 4d
b111000100 4e
04f
b0 50
051
b0 52
b0 53
054
055
b0 56
b0 57
058
b0 59
b0 5a
b0 5b
05c
b0 5d
b111000100 5e
05f
b0 60
$end
#50
15c
1a
12c
135
145
14c
155
125
13c
#51
b1 3
b1 4
b10 5
b10 6
b11 7
b10 8
11
121
1c
b1 10
b1 33
111
131
b1 12
b1 32
b10 15
b10 43
116
141
b10 17
b10 42
b11 1a
b11 53
11b
151
b10 1c
b10 52
b1 3d
b1 3b
b10 4d
b10 4b
b10 5d
b10 5b
#100
05c
0a
02c
035
045
04c
055
025
03c
#150
15c
1a
12c
135
145
14c
155
125
13c
#151
b1 2
b10 4
b0 5
b11 8
11f
128
138
b1 39
b1 3a
b1 40
148
b10 49
b10 4a
b10 50
158
b10 59
b11 5a
b10 60
b1 d
b1 22
b10 12
b10 32
b0 15
b0 43
b11 1c
b11 52
b11 3e
b100011 4e
b100011 5e
b1 2b
b1 2d
b10 3d
b10 3b
b11 5d
b11 5b
#200
05c
0a
02c
035
045
04c
055
025
03c
#249
15c
1a
12c
135
145
14c
155
125
13c
#251
b1010 0
b100 2
b11001000 3
b1000 4
b101110111000 5
b1100 6
b1111111111111111 7
b10000 8
120
b1110 26
b100 27
b1 29
b1 30
b1 36
b100 37
b10 39
b10 40
b110 46
b101 47
b0 4a
b111 56
b101 57
b11 59
b11 60
b1010 b
b1010 23
b100 d
b100 22
b1110 e
b100 f
b11001000 10
b11001000 33
b1000 12
b1000 32
b1 13
b100 14
b101110111000 15
b101110111000 43
b1100 17
b1100 42
b110 18
b101 19
b1111111111111111 1a
b1111111111111111 53
b10000 1c
b10000 52
b111 1d
b101 1e
b11 2e
b100011 3e
b1000011 5e
b100 2b
b100 2d
b1000 3d
b1000 3b
b1100 4d
b1100 4b
b10000 5d
b10000 5b
#299
05c
0a
02c
035
045
04c
055
025
03c
#349
15c
1a
12c
135
145
14c
155
125
13c
#350
b101 0
b110111 3
b10001000111 5
b0 7
b0 26
b100 29
b1010 2a
b100 30
b101 36
b101 37
b1000 39
b11001000 3a
b1000 40
b100 46
b1100 49
b101110111000 4a
b1100 50
b10011 56
b110 57
b10000 59
b1111111111111111 5a
b10000 60
b101 b
b101 23
b0 e
b110111 10
b110111 33
b101 13
b101 14
b10001000111 15
b10001000111 43
b100 18
b0 1a
b0 53
b10011 1d
b110 1e
b1100011 2e
b1111000101 3e
b11111111001001 4e
b111111111111001101 5e
#399
05c
0a
02c
035
045
04c
055
025
03c
#449
15c
1a
12c
135
145
14c
155
125
13c
#450
01
b111010 26
b111 27
b101 2a
b1111011001000 36
b1101 37
b110111 3a
b111111110101110111000 46
b10101 47
b10001000111 4a
b1111111111110 56
b1101 57
b0 5a
021
0c
b111010 e
b111 f
011
031
b1111011001000 13
b1101 14
016
041
b111111110101110111000 18
b10101 19
01b
051
b1111111111110 1d
b1101 1e
#499
05c
0a
02c
035
045
04c
055
025
03c
#549
15c
1a
12c
135
145
14c
155
125
13c
#550
01f
b110101 26
028
b1111000110111 36
038
b111111110010001000111 46
048
058
b110101 e
b1111000110111 13
b111111110010001000111 18
#599
05c
0a
02c
035
045
04c
055
025
03c
#650
15c
1a
12c
135
145
14c
155
125
13c
020
