simulations/lj92_pipeline_fifo_test_1.vcd
$comment Generated by nMigen $end
$date 2019-06-06 02:19:32.619327 $end
$timescale 100 ps $end
$scope module top $end
$var wire 1 0 valid_in $end
$var wire 124 1 enc_in $end
$var wire 7 2 enc_in_ctr $end
$var wire 1 3 in_end $end
$var wire 1 4 latch_output $end
$var wire 1 5 fifo_rst $end
$var wire 1 6 fifo_clk $end
$var wire 1 7 fifo_we $end
$var wire 132 8 fifo_din $end
$var wire 1 9 valid_out $end
$var wire 124 a enc_out $end
$var wire 7 b enc_out_ctr $end
$var wire 1 c out_end $end
$var wire 1 d fifo_re $end
$var wire 1 e close_full $end
$scope module fifo $end
$var wire 132 f din $end
$var wire 1 10 we $end
$var wire 1 11 re $end
$var wire 1 12 unbuffered_rst $end
$var wire 1 13 unbuffered_clk $end
$var wire 132 14 dout $end
$var wire 1 15 readable $end
$var wire 7 16 level $end
$var wire 132 17 unbuffered_din $end
$var wire 1 18 unbuffered_we $end
$var wire 1 19 writable $end
$var wire 1 1a unbuffered_replace $end
$var wire 1 1b unbuffered_re $end
$scope module unbuffered $end
$var wire 132 1c din $end
$var wire 1 1d we $end
$var wire 1 1e replace $end
$var wire 1 1f re $end
$var wire 1 20 rst $end
$var wire 1 21 wrport_clk $end
$var wire 1 22 writable $end
$var wire 1 23 readable $end
$var wire 132 24 dout $end
$var wire 7 25 level $end
$var wire 7 26 wrport_storage_w_addr $end
$var wire 132 27 wrport_storage_w_data $end
$var wire 1 28 wrport_storage_w_en $end
$var wire 7 29 rdport_storage_r_addr $end
$var wire 1 2a rdport_storage_r_en $end
$var wire 7 2b produce $end
$var wire 7 2c consume $end
$scope module rdport $end
$var wire 1 95 clk $end
$var wire 1 96 storage_r_en $end
$var wire 7 97 storage_r_addr $end
$var wire 132 98 storage_r_data $end
$var wire 1 99 rst $end
$upscope $end
$scope module wrport $end
$var wire 1 2d clk $end
$var wire 1 2e storage_w_en $end
$var wire 7 2f storage_w_addr $end
$var wire 132 30 storage_w_data $end
$var wire 1 31 rst $end
$var wire 132 32 None(0) $end
$var wire 132 33 None(1) $end
$var wire 132 34 None(2) $end
$var wire 132 35 None(3) $end
$var wire 132 36 None(4) $end
$var wire 132 37 None(5) $end
$var wire 132 38 None(6) $end
$var wire 132 39 None(7) $end
$var wire 132 3a None(8) $end
$var wire 132 3b None(9) $end
$var wire 132 3c None(10) $end
$var wire 132 3d None(11) $end
$var wire 132 3e None(12) $end
$var wire 132 3f None(13) $end
$var wire 132 40 None(14) $end
$var wire 132 41 None(15) $end
$var wire 132 42 None(16) $end
$var wire 132 43 None(17) $end
$var wire 132 44 None(18) $end
$var wire 132 45 None(19) $end
$var wire 132 46 None(20) $end
$var wire 132 47 None(21) $end
$var wire 132 48 None(22) $end
$var wire 132 49 None(23) $end
$var wire 132 4a None(24) $end
$var wire 132 4b None(25) $end
$var wire 132 4c None(26) $end
$var wire 132 4d None(27) $end
$var wire 132 4e None(28) $end
$var wire 132 4f None(29) $end
$var wire 132 50 None(30) $end
$var wire 132 51 None(31) $end
$var wire 132 52 None(32) $end
$var wire 132 53 None(33) $end
$var wire 132 54 None(34) $end
$var wire 132 55 None(35) $end
$var wire 132 56 None(36) $end
$var wire 132 57 None(37) $end
$var wire 132 58 None(38) $end
$var wire 132 59 None(39) $end
$var wire 132 5a None(40) $end
$var wire 132 5b None(41) $end
$var wire 132 5c None(42) $end
$var wire 132 5d None(43) $end
$var wire 132 5e None(44) $end
$var wire 132 5f None(45) $end
$var wire 132 60 None(46) $end
$var wire 132 61 None(47) $end
$var wire 132 62 None(48) $end
$var wire 132 63 None(49) $end
$var wire 132 64 None(50) $end
$var wire 132 65 None(51) $end
$var wire 132 66 None(52) $end
$var wire 132 67 None(53) $end
$var wire 132 68 None(54) $end
$var wire 132 69 None(55) $end
$var wire 132 6a None(56) $end
$var wire 132 6b None(57) $end
$var wire 132 6c None(58) $end
$var wire 132 6d None(59) $end
$var wire 132 6e None(60) $end
$var wire 132 6f None(61) $end
$var wire 132 70 None(62) $end
$var wire 132 71 None(63) $end
$var wire 132 72 None(64) $end
$var wire 132 73 None(65) $end
$var wire 132 74 None(66) $end
$var wire 132 75 None(67) $end
$var wire 132 76 None(68) $end
$var wire 132 77 None(69) $end
$var wire 132 78 None(70) $end
$var wire 132 79 None(71) $end
$var wire 132 7a None(72) $end
$var wire 132 7b None(73) $end
$var wire 132 7c None(74) $end
$var wire 132 7d None(75) $end
$var wire 132 7e None(76) $end
$var wire 132 7f None(77) $end
$var wire 132 80 None(78) $end
$var wire 132 81 None(79) $end
$var wire 132 82 None(80) $end
$var wire 132 83 None(81) $end
$var wire 132 84 None(82) $end
$var wire 132 85 None(83) $end
$var wire 132 86 None(84) $end
$var wire 132 87 None(85) $end
$var wire 132 88 None(86) $end
$var wire 132 89 None(87) $end
$var wire 132 8a None(88) $end
$var wire 132 8b None(89) $end
$var wire 132 8c None(90) $end
$var wire 132 8d None(91) $end
$var wire 132 8e None(92) $end
$var wire 132 8f None(93) $end
$var wire 132 90 None(94) $end
$var wire 132 91 None(95) $end
$var wire 132 92 None(96) $end
$var wire 132 93 None(97) $end
$var wire 132 94 None(98) $end
$upscope $end
$upscope $end
$upscope $end
$upscope $end
$enddefinitions $end
#0
$dumpvars
00
b0 1
b0 2
03
04
05
06
07
b0 8
09
b0 a
b0 b
0c
0d
0e
b0 f
010
011
012
013
b0 14
015
b0 16
b0 17
018
119
01a
01b
b0 1c
01d
01e
01f
020
021
122
023
b0 24
b0 25
b0 26
b0 27
028
b0 29
02a
b0 2b
b0 2c
02d
02e
b0 2f
b0 30
031
b0 32
b0 33
b0 34
b0 35
b0 36
b0 37
b0 38
b0 39
b0 3a
b0 3b
b0 3c
b0 3d
b0 3e
b0 3f
b0 40
b0 41
b0 42
b0 43
b0 44
b0 45
b0 46
b0 47
b0 48
b0 49
b0 4a
b0 4b
b0 4c
b0 4d
b0 4e
b0 4f
b0 50
b0 51
b0 52
b0 53
b0 54
b0 55
b0 56
b0 57
b0 58
b0 59
b0 5a
b0 5b
b0 5c
b0 5d
b0 5e
b0 5f
b0 60
b0 61
b0 62
b0 63
b0 64
b0 65
b0 66
b0 67
b0 68
b0 69
b0 6a
b0 6b
b0 6c
b0 6d
b0 6e
b0 6f
b0 70
b0 71
b0 72
b0 73
b0 74
b0 75
b0 76
b0 77
b0 78
b0 79
b0 7a
b0 7b
b0 7c
b0 7d
b0 7e
b0 7f
b0 80
b0 81
b0 82
b0 83
b0 84
b0 85
b0 86
b0 87
b0 88
b0 89
b0 8a
b0 8b
b0 8c
b0 8d
b0 8e
b0 8f
b0 90
b0 91
b0 92
b0 93
b0 94
095
096
b0 97
b0 98
099
$end
#50
195
16
113
12d
121
#100
095
06
013
02d
021
#150
195
16
113
12d
121
#151
b10111011001010010010001100001100111111111 1
b101001 2
10
17
110
b1010010000000000000000000000000000000000000000000000000000000000000000000000000000000000010111011001010010010001100001100111111111 8
b1010010000000000000000000000000000000000000000000000000000000000000000000000000000000000010111011001010010010001100001100111111111 f
b1010010000000000000000000000000000000000000000000000000000000000000000000000000000000000010111011001010010010001100001100111111111 17
b1010010000000000000000000000000000000000000000000000000000000000000000000000000000000000010111011001010010010001100001100111111111 1c
118
11d
b1010010000000000000000000000000000000000000000000000000000000000000000000000000000000000010111011001010010010001100001100111111111 27
b1010010000000000000000000000000000000000000000000000000000000000000000000000000000000000010111011001010010010001100001100111111111 30
128
12e
#200
095
06
013
02d
021
#249
195
16
113
12d
121
#251
b1111111100100011010001010010010000110001111111110010001101000101001001000011000111111111001000110100010100100100001100011000 1
b1111100 2
13
b1 25
b1 2b
b1010010000000000000000000000000000000000000000000000000000000000000000000000000000000000010111011001010010010001100001100111111111 32
b111111001111111100100011010001010010010000110001111111110010001101000101001001000011000111111111001000110100010100100100001100011000 8
b111111001111111100100011010001010010010000110001111111110010001101000101001001000011000111111111001000110100010100100100001100011000 f
b1 16
123
b1 26
b1 2f
b111111001111111100100011010001010010010000110001111111110010001101000101001001000011000111111111001000110100010100100100001100011000 17
b111111001111111100100011010001010010010000110001111111110010001101000101001001000011000111111111001000110100010100100100001100011000 1c
11b
11f
b111111001111111100100011010001010010010000110001111111110010001101000101001001000011000111111111001000110100010100100100001100011000 27
b111111001111111100100011010001010010010000110001111111110010001101000101001001000011000111111111001000110100010100100100001100011000 30
196
12a
#299
095
06
013
02d
021
#349
195
16
113
12d
121
#350
00
115
b10 2b
b1 2c
b111111001111111100100011010001010010010000110001111111110010001101000101001001000011000111111111001000110100010100100100001100011000 33
b1010010000000000000000000000000000000000000000000000000000000000000000000000000000000000010111011001010010010001100001100111111111 98
07
010
19
b10 16
01b
01f
b1010010000000000000000000000000000000000000000000000000000000000000000000000000000000000010111011001010010010001100001100111111111 24
b10 26
b10 2f
b1 29
b1 97
b1010010000000000000000000000000000000000000000000000000000000000000000000000000000000000010111011001010010010001100001100111111111 14
018
01d
096
02a
b10111011001010010010001100001100111111111 a
b101001 b
028
02e
#399
095
06
013
02d
021
#449
195
16
113
12d
121
#450
14
1d
111
11b
11f
196
12a
#499
095
06
013
02d
021
#549
195
16
113
12d
121
#550
04
b0 25
b10 2c
b111111001111111100100011010001010010010000110001111111110010001101000101001001000011000111111111001000110100010100100100001100011000 98
0d
011
b1 16
023
b111111001111111100100011010001010010010000110001111111110010001101000101001001000011000111111111001000110100010100100100001100011000 24
b10 29
b10 97
b111111001111111100100011010001010010010000110001111111110010001101000101001001000011000111111111001000110100010100100100001100011000 14
01b
01f
b1111111100100011010001010010010000110001111111110010001101000101001001000011000111111111001000110100010100100100001100011000 a
b1111100 b
1c
096
02a
#599
095
06
013
02d
021
#650
195
16
113
12d
121
14
1d
111
#700
095
06
013
02d
021
#750
195
16
113
12d
121
#751
04
015
09
0d
011
b0 16
#800
095
06
013
02d
021
#850
195
16
113
12d
121
#900
095
06
013
02d
021
#950
195
16
113
12d
121
#951
b10111011001010010010001100001100111111111 1
b101001 2
03
10
17
110
b1010010000000000000000000000000000000000000000000000000000000000000000000000000000000000010111011001010010010001100001100111111111 8
b1010010000000000000000000000000000000000000000000000000000000000000000000000000000000000010111011001010010010001100001100111111111 f
b1010010000000000000000000000000000000000000000000000000000000000000000000000000000000000010111011001010010010001100001100111111111 17
b1010010000000000000000000000000000000000000000000000000000000000000000000000000000000000010111011001010010010001100001100111111111 1c
118
11d
b1010010000000000000000000000000000000000000000000000000000000000000000000000000000000000010111011001010010010001100001100111111111 27
b1010010000000000000000000000000000000000000000000000000000000000000000000000000000000000010111011001010010010001100001100111111111 30
128
12e
#1000
095
06
013
02d
021
#1050
195
16
113
12d
121
#1051
b1 25
b11 2b
b1010010000000000000000000000000000000000000000000000000000000000000000000000000000000000010111011001010010010001100001100111111111 34
b1 16
123
b11 26
b11 2f
11b
11f
196
12a
#1100
095
06
013
02d
021
#1150
195
16
113
12d
121
#1151
115
b100 2b
b11 2c
b1010010000000000000000000000000000000000000000000000000000000000000000000000000000000000010111011001010010010001100001100111111111 35
b1010010000000000000000000000000000000000000000000000000000000000000000000000000000000000010111011001010010010001100001100111111111 98
19
b10 16
01b
01f
b1010010000000000000000000000000000000000000000000000000000000000000000000000000000000000010111011001010010010001100001100111111111 24
b100 26
b100 2f
b11 29
b11 97
b1010010000000000000000000000000000000000000000000000000000000000000000000000000000000000010111011001010010010001100001100111111111 14
096
02a
b10111011001010010010001100001100111111111 a
b101001 b
0c
#1200
095
06
013
02d
021
#1250
195
16
113
12d
121
#1251
b10 25
b101 2b
b1010010000000000000000000000000000000000000000000000000000000000000000000000000000000000010111011001010010010001100001100111111111 36
b11 16
b101 26
b101 2f
#1300
095
06
013
02d
021
#1350
195
16
113
12d
121
#1351
b11 25
b110 2b
b1010010000000000000000000000000000000000000000000000000000000000000000000000000000000000010111011001010010010001100001100111111111 37
b100 16
b110 26
b110 2f
#1400
095
06
013
02d
021
#1450
195
16
113
12d
121
#1451
b100 25
b111 2b
b1010010000000000000000000000000000000000000000000000000000000000000000000000000000000000010111011001010010010001100001100111111111 38
b101 16
b111 26
b111 2f
#1500
095
06
013
02d
021
#1550
195
16
113
12d
121
#1551
b101 25
b1000 2b
b1010010000000000000000000000000000000000000000000000000000000000000000000000000000000000010111011001010010010001100001100111111111 39
b110 16
b1000 26
b1000 2f
#1600
095
06
013
02d
021
#1650
195
16
113
12d
121
#1651
b110 25
b1001 2b
b1010010000000000000000000000000000000000000000000000000000000000000000000000000000000000010111011001010010010001100001100111111111 3a
b111 16
b1001 26
b1001 2f
#1700
095
06
013
02d
021
#1750
195
16
113
12d
121
#1751
b111 25
b1010 2b
b1010010000000000000000000000000000000000000000000000000000000000000000000000000000000000010111011001010010010001100001100111111111 3b
b1000 16
b1010 26
b1010 2f
#1800
095
06
013
02d
021
#1850
195
16
113
12d
121
#1851
b1000 25
b1011 2b
b1010010000000000000000000000000000000000000000000000000000000000000000000000000000000000010111011001010010010001100001100111111111 3c
b1001 16
b1011 26
b1011 2f
#1900
095
06
013
02d
021
#1950
195
16
113
12d
121
#1951
b1001 25
b1100 2b
b1010010000000000000000000000000000000000000000000000000000000000000000000000000000000000010111011001010010010001100001100111111111 3d
b1010 16
b1100 26
b1100 2f
#2000
095
06
013
02d
021
#2050
195
16
113
12d
121
#2051
b1010 25
b1101 2b
b1010010000000000000000000000000000000000000000000000000000000000000000000000000000000000010111011001010010010001100001100111111111 3e
b1011 16
b1101 26
b1101 2f
#2100
095
06
013
02d
021
#2150
195
16
113
12d
121
#2151
b1011 25
b1110 2b
b1010010000000000000000000000000000000000000000000000000000000000000000000000000000000000010111011001010010010001100001100111111111 3f
b1100 16
b1110 26
b1110 2f
#2200
095
06
013
02d
021
#2250
195
16
113
12d
121
#2251
b1100 25
b1111 2b
b1010010000000000000000000000000000000000000000000000000000000000000000000000000000000000010111011001010010010001100001100111111111 40
b1101 16
b1111 26
b1111 2f
#2300
095
06
013
02d
021
#2350
195
16
113
12d
121
#2351
b1101 25
b10000 2b
b1010010000000000000000000000000000000000000000000000000000000000000000000000000000000000010111011001010010010001100001100111111111 41
b1110 16
b10000 26
b10000 2f
#2400
095
06
013
02d
021
#2450
195
16
113
12d
121
#2451
b1110 25
b10001 2b
b1010010000000000000000000000000000000000000000000000000000000000000000000000000000000000010111011001010010010001100001100111111111 42
b1111 16
b10001 26
b10001 2f
#2500
095
06
013
02d
021
#2550
195
16
113
12d
121
#2551
b1111 25
b10010 2b
b1010010000000000000000000000000000000000000000000000000000000000000000000000000000000000010111011001010010010001100001100111111111 43
b10000 16
b10010 26
b10010 2f
#2600
095
06
013
02d
021
#2650
195
16
113
12d
121
#2651
b10000 25
b10011 2b
b1010010000000000000000000000000000000000000000000000000000000000000000000000000000000000010111011001010010010001100001100111111111 44
b10001 16
b10011 26
b10011 2f
#2700
095
06
013
02d
021
#2750
195
16
113
12d
121
#2751
b10001 25
b10100 2b
b1010010000000000000000000000000000000000000000000000000000000000000000000000000000000000010111011001010010010001100001100111111111 45
b10010 16
b10100 26
b10100 2f
#2800
095
06
013
02d
021
#2850
195
16
113
12d
121
#2851
b10010 25
b10101 2b
b1010010000000000000000000000000000000000000000000000000000000000000000000000000000000000010111011001010010010001100001100111111111 46
b10011 16
b10101 26
b10101 2f
#2900
095
06
013
02d
021
#2950
195
16
113
12d
121
#2951
b10011 25
b10110 2b
b1010010000000000000000000000000000000000000000000000000000000000000000000000000000000000010111011001010010010001100001100111111111 47
b10100 16
b10110 26
b10110 2f
#3000
095
06
013
02d
021
#3050
195
16
113
12d
121
#3051
b10100 25
b10111 2b
b1010010000000000000000000000000000000000000000000000000000000000000000000000000000000000010111011001010010010001100001100111111111 48
b10101 16
b10111 26
b10111 2f
#3100
095
06
013
02d
021
#3150
195
16
113
12d
121
#3151
b10101 25
b11000 2b
b1010010000000000000000000000000000000000000000000000000000000000000000000000000000000000010111011001010010010001100001100111111111 49
b10110 16
b11000 26
b11000 2f
#3200
095
06
013
02d
021
#3250
195
16
113
12d
121
#3251
b10110 25
b11001 2b
b1010010000000000000000000000000000000000000000000000000000000000000000000000000000000000010111011001010010010001100001100111111111 4a
b10111 16
b11001 26
b11001 2f
#3300
095
06
013
02d
021
#3350
195
16
113
12d
121
#3351
b10111 25
b11010 2b
b1010010000000000000000000000000000000000000000000000000000000000000000000000000000000000010111011001010010010001100001100111111111 4b
b11000 16
b11010 26
b11010 2f
#3400
095
06
013
02d
021
#3450
195
16
113
12d
121
#3451
b11000 25
b11011 2b
b1010010000000000000000000000000000000000000000000000000000000000000000000000000000000000010111011001010010010001100001100111111111 4c
b11001 16
b11011 26
b11011 2f
#3500
095
06
013
02d
021
#3550
195
16
113
12d
121
#3551
b11001 25
b11100 2b
b1010010000000000000000000000000000000000000000000000000000000000000000000000000000000000010111011001010010010001100001100111111111 4d
b11010 16
b11100 26
b11100 2f
#3600
095
06
013
02d
021
#3650
195
16
113
12d
121
#3651
b11010 25
b11101 2b
b1010010000000000000000000000000000000000000000000000000000000000000000000000000000000000010111011001010010010001100001100111111111 4e
b11011 16
b11101 26
b11101 2f
#3700
095
06
013
02d
021
#3750
195
16
113
12d
121
#3751
b11011 25
b11110 2b
b1010010000000000000000000000000000000000000000000000000000000000000000000000000000000000010111011001010010010001100001100111111111 4f
b11100 16
b11110 26
b11110 2f
#3800
095
06
013
02d
021
#3850
195
16
113
12d
121
#3851
b11100 25
b11111 2b
b1010010000000000000000000000000000000000000000000000000000000000000000000000000000000000010111011001010010010001100001100111111111 50
b11101 16
b11111 26
b11111 2f
#3900
095
06
013
02d
021
#3950
195
16
113
12d
121
#3951
b11101 25
b100000 2b
b1010010000000000000000000000000000000000000000000000000000000000000000000000000000000000010111011001010010010001100001100111111111 51
b11110 16
b100000 26
b100000 2f
#4000
095
06
013
02d
021
#4050
195
16
113
12d
121
#4051
b11110 25
b100001 2b
b1010010000000000000000000000000000000000000000000000000000000000000000000000000000000000010111011001010010010001100001100111111111 52
b11111 16
b100001 26
b100001 2f
#4100
095
06
013
02d
021
#4150
195
16
113
12d
121
#4151
b11111 25
b100010 2b
b1010010000000000000000000000000000000000000000000000000000000000000000000000000000000000010111011001010010010001100001100111111111 53
b100000 16
b100010 26
b100010 2f
#4200
095
06
013
02d
021
#4250
195
16
113
12d
121
#4251
b100000 25
b100011 2b
b1010010000000000000000000000000000000000000000000000000000000000000000000000000000000000010111011001010010010001100001100111111111 54
b100001 16
b100011 26
b100011 2f
#4300
095
06
013
02d
021
#4350
195
16
113
12d
121
#4351
b100001 25
b100100 2b
b1010010000000000000000000000000000000000000000000000000000000000000000000000000000000000010111011001010010010001100001100111111111 55
b100010 16
b100100 26
b100100 2f
#4400
095
06
013
02d
021
#4450
195
16
113
12d
121
#4451
b100010 25
b100101 2b
b1010010000000000000000000000000000000000000000000000000000000000000000000000000000000000010111011001010010010001100001100111111111 56
b100011 16
b100101 26
b100101 2f
#4500
095
06
013
02d
021
#4550
195
16
113
12d
121
#4551
b100011 25
b100110 2b
b1010010000000000000000000000000000000000000000000000000000000000000000000000000000000000010111011001010010010001100001100111111111 57
b100100 16
b100110 26
b100110 2f
#4600
095
06
013
02d
021
#4650
195
16
113
12d
121
#4651
b100100 25
b100111 2b
b1010010000000000000000000000000000000000000000000000000000000000000000000000000000000000010111011001010010010001100001100111111111 58
b100101 16
b100111 26
b100111 2f
#4700
095
06
013
02d
021
#4750
195
16
113
12d
121
#4751
b100101 25
b101000 2b
b1010010000000000000000000000000000000000000000000000000000000000000000000000000000000000010111011001010010010001100001100111111111 59
b100110 16
b101000 26
b101000 2f
#4800
095
06
013
02d
021
#4850
195
16
113
12d
121
#4851
b100110 25
b101001 2b
b1010010000000000000000000000000000000000000000000000000000000000000000000000000000000000010111011001010010010001100001100111111111 5a
b100111 16
b101001 26
b101001 2f
#4900
095
06
013
02d
021
#4950
195
16
113
12d
121
#4951
b100111 25
b101010 2b
b1010010000000000000000000000000000000000000000000000000000000000000000000000000000000000010111011001010010010001100001100111111111 5b
b101000 16
b101010 26
b101010 2f
#5000
095
06
013
02d
021
#5050
195
16
113
12d
121
#5051
b101000 25
b101011 2b
b1010010000000000000000000000000000000000000000000000000000000000000000000000000000000000010111011001010010010001100001100111111111 5c
b101001 16
b101011 26
b101011 2f
#5100
095
06
013
02d
021
#5150
195
16
113
12d
121
#5151
b101001 25
b101100 2b
b1010010000000000000000000000000000000000000000000000000000000000000000000000000000000000010111011001010010010001100001100111111111 5d
b101010 16
b101100 26
b101100 2f
#5200
095
06
013
02d
021
#5249
195
16
113
12d
121
#5250
b101010 25
b101101 2b
b1010010000000000000000000000000000000000000000000000000000000000000000000000000000000000010111011001010010010001100001100111111111 5e
b101011 16
b101101 26
b101101 2f
#5299
095
06
013
02d
021
#5349
195
16
113
12d
121
#5350
b101011 25
b101110 2b
b1010010000000000000000000000000000000000000000000000000000000000000000000000000000000000010111011001010010010001100001100111111111 5f
b101100 16
b101110 26
b101110 2f
#5399
095
06
013
02d
021
#5449
195
16
113
12d
121
#5450
b101100 25
b101111 2b
b1010010000000000000000000000000000000000000000000000000000000000000000000000000000000000010111011001010010010001100001100111111111 60
b101101 16
b101111 26
b101111 2f
#5499
095
06
013
02d
021
#5549
195
16
113
12d
121
#5550
b101101 25
b110000 2b
b1010010000000000000000000000000000000000000000000000000000000000000000000000000000000000010111011001010010010001100001100111111111 61
b101110 16
b110000 26
b110000 2f
#5599
095
06
013
02d
021
#5649
195
16
113
12d
121
#5650
b101110 25
b110001 2b
b1010010000000000000000000000000000000000000000000000000000000000000000000000000000000000010111011001010010010001100001100111111111 62
b101111 16
b110001 26
b110001 2f
#5699
095
06
013
02d
021
#5749
195
16
113
12d
121
#5750
b101111 25
b110010 2b
b1010010000000000000000000000000000000000000000000000000000000000000000000000000000000000010111011001010010010001100001100111111111 63
b110000 16
b110010 26
b110010 2f
#5799
095
06
013
02d
021
#5849
195
16
113
12d
121
#5850
b110000 25
b110011 2b
b1010010000000000000000000000000000000000000000000000000000000000000000000000000000000000010111011001010010010001100001100111111111 64
b110001 16
b110011 26
b110011 2f
#5899
095
06
013
02d
021
#5949
195
16
113
12d
121
#5950
b110001 25
b110100 2b
b1010010000000000000000000000000000000000000000000000000000000000000000000000000000000000010111011001010010010001100001100111111111 65
b110010 16
b110100 26
b110100 2f
#5999
095
06
013
02d
021
#6049
195
16
113
12d
121
#6050
00
b110010 25
b110101 2b
b1010010000000000000000000000000000000000000000000000000000000000000000000000000000000000010111011001010010010001100001100111111111 66
07
010
b110011 16
b110101 26
b110101 2f
018
01d
028
02e
#6099
095
06
013
02d
021
#6149
195
16
113
12d
121
#6150
1e
#6199
095
06
013
02d
021
#6249
195
16
113
12d
121
#6250
14
1d
111
11b
11f
196
12a
#6299
095
06
013
02d
021
#6349
195
16
113
12d
121
#6350
04
b110001 25
b100 2c
0d
011
b110010 16
b100 29
b100 97
01b
01f
096
02a
#6399
095
06
013
02d
021
#6449
195
16
113
12d
121
#6450
0e
