simulations/lj92_pipeline_fifo_test_1.vcd
$comment Generated by nMigen $end
$date 2019-06-17 03:33:00.761011 $end
$timescale 100 ps $end
$scope module top $end
$var wire 1 0 valid_in $end
$var wire 124 1 enc_in $end
$var wire 7 2 enc_in_ctr $end
$var wire 1 3 in_end $end
$var wire 1 4 latch_output $end
$var wire 1 5 fifo_rst $end
$var wire 1 6 fifo_clk $end
$var wire 1 7 fifo_we $end
$var wire 132 8 fifo_din $end
$var wire 1 9 valid_out $end
$var wire 124 a enc_out $end
$var wire 7 b enc_out_ctr $end
$var wire 1 c out_end $end
$var wire 1 d fifo_re $end
$var wire 1 e close_full $end
$scope module fifo $end
$var wire 132 f din $end
$var wire 1 10 we $end
$var wire 1 11 re $end
$var wire 1 12 unbuffered_rst $end
$var wire 1 13 unbuffered_clk $end
$var wire 132 14 dout $end
$var wire 1 15 readable $end
$var wire 7 16 level $end
$var wire 132 17 unbuffered_din $end
$var wire 1 18 unbuffered_we $end
$var wire 1 19 writable $end
$var wire 1 1a unbuffered_replace $end
$var wire 1 1b unbuffered_re $end
$scope module unbuffered $end
$var wire 132 1c din $end
$var wire 1 1d we $end
$var wire 1 1e replace $end
$var wire 1 1f re $end
$var wire 1 20 rst $end
$var wire 1 21 wrport_clk $end
$var wire 1 22 writable $end
$var wire 1 23 readable $end
$var wire 132 24 dout $end
$var wire 7 25 level $end
$var wire 7 26 wrport_storage_w_addr $end
$var wire 132 27 wrport_storage_w_data $end
$var wire 1 28 wrport_storage_w_en $end
$var wire 7 29 rdport_storage_r_addr $end
$var wire 1 2a rdport_storage_r_en $end
$var wire 7 2b produce $end
$var wire 7 2c consume $end
$scope module rdport $end
$var wire 1 95 clk $end
$var wire 1 96 storage_r_en $end
$var wire 7 97 storage_r_addr $end
$var wire 132 98 storage_r_data $end
$var wire 1 99 rst $end
$upscope $end
$scope module wrport $end
$var wire 1 2d clk $end
$var wire 1 2e storage_w_en $end
$var wire 7 2f storage_w_addr $end
$var wire 132 30 storage_w_data $end
$var wire 1 31 rst $end
$var wire 132 32 None(0) $end
$var wire 132 33 None(1) $end
$var wire 132 34 None(2) $end
$var wire 132 35 None(3) $end
$var wire 132 36 None(4) $end
$var wire 132 37 None(5) $end
$var wire 132 38 None(6) $end
$var wire 132 39 None(7) $end
$var wire 132 3a None(8) $end
$var wire 132 3b None(9) $end
$var wire 132 3c None(10) $end
$var wire 132 3d None(11) $end
$var wire 132 3e None(12) $end
$var wire 132 3f None(13) $end
$var wire 132 40 None(14) $end
$var wire 132 41 None(15) $end
$var wire 132 42 None(16) $end
$var wire 132 43 None(17) $end
$var wire 132 44 None(18) $end
$var wire 132 45 None(19) $end
$var wire 132 46 None(20) $end
$var wire 132 47 None(21) $end
$var wire 132 48 None(22) $end
$var wire 132 49 None(23) $end
$var wire 132 4a None(24) $end
$var wire 132 4b None(25) $end
$var wire 132 4c None(26) $end
$var wire 132 4d None(27) $end
$var wire 132 4e None(28) $end
$var wire 132 4f None(29) $end
$var wire 132 50 None(30) $end
$var wire 132 51 None(31) $end
$var wire 132 52 None(32) $end
$var wire 132 53 None(33) $end
$var wire 132 54 None(34) $end
$var wire 132 55 None(35) $end
$var wire 132 56 None(36) $end
$var wire 132 57 None(37) $end
$var wire 132 58 None(38) $end
$var wire 132 59 None(39) $end
$var wire 132 5a None(40) $end
$var wire 132 5b None(41) $end
$var wire 132 5c None(42) $end
$var wire 132 5d None(43) $end
$var wire 132 5e None(44) $end
$var wire 132 5f None(45) $end
$var wire 132 60 None(46) $end
$var wire 132 61 None(47) $end
$var wire 132 62 None(48) $end
$var wire 132 63 None(49) $end
$var wire 132 64 None(50) $end
$var wire 132 65 None(51) $end
$var wire 132 66 None(52) $end
$var wire 132 67 None(53) $end
$var wire 132 68 None(54) $end
$var wire 132 69 None(55) $end
$var wire 132 6a None(56) $end
$var wire 132 6b None(57) $end
$var wire 132 6c None(58) $end
$var wire 132 6d None(59) $end
$var wire 132 6e None(60) $end
$var wire 132 6f None(61) $end
$var wire 132 70 None(62) $end
$var wire 132 71 None(63) $end
$var wire 132 72 None(64) $end
$var wire 132 73 None(65) $end
$var wire 132 74 None(66) $end
$var wire 132 75 None(67) $end
$var wire 132 76 None(68) $end
$var wire 132 77 None(69) $end
$var wire 132 78 None(70) $end
$var wire 132 79 None(71) $end
$var wire 132 7a None(72) $end
$var wire 132 7b None(73) $end
$var wire 132 7c None(74) $end
$var wire 132 7d None(75) $end
$var wire 132 7e None(76) $end
$var wire 132 7f None(77) $end
$var wire 132 80 None(78) $end
$var wire 132 81 None(79) $end
$var wire 132 82 None(80) $end
$var wire 132 83 None(81) $end
$var wire 132 84 None(82) $end
$var wire 132 85 None(83) $end
$var wire 132 86 None(84) $end
$var wire 132 87 None(85) $end
$var wire 132 88 None(86) $end
$var wire 132 89 None(87) $end
$var wire 132 8a None(88) $end
$var wire 132 8b None(89) $end
$var wire 132 8c None(90) $end
$var wire 132 8d None(91) $end
$var wire 132 8e None(92) $end
$var wire 132 8f None(93) $end
$var wire 132 90 None(94) $end
$var wire 132 91 None(95) $end
$var wire 132 92 None(96) $end
$var wire 132 93 None(97) $end
$var wire 132 94 None(98) $end
$upscope $end
$upscope $end
$upscope $end
$upscope $end
$enddefinitions $end
#0
$dumpvars
00
b0 1
b0 2
03
04
05
06
07
b0 8
09
b0 a
b0 b
0c
0d
0e
b0 f
010
011
012
013
b0 14
015
b0 16
b0 17
018
119
01a
01b
b0 1c
01d
01e
01f
020
021
122
023
b0 24
b0 25
b0 26
b0 27
028
b0 29
02a
b0 2b
b0 2c
02d
02e
b0 2f
b0 30
031
b0 32
b0 33
b0 34
b0 35
b0 36
b0 37
b0 38
b0 39
b0 3a
b0 3b
b0 3c
b0 3d
b0 3e
b0 3f
b0 40
b0 41
b0 42
b0 43
b0 44
b0 45
b0 46
b0 47
b0 48
b0 49
b0 4a
b0 4b
b0 4c
b0 4d
b0 4e
b0 4f
b0 50
b0 51
b0 52
b0 53
b0 54
b0 55
b0 56
b0 57
b0 58
b0 59
b0 5a
b0 5b
b0 5c
b0 5d
b0 5e
b0 5f
b0 60
b0 61
b0 62
b0 63
b0 64
b0 65
b0 66
b0 67
b0 68
b0 69
b0 6a
b0 6b
b0 6c
b0 6d
b0 6e
b0 6f
b0 70
b0 71
b0 72
b0 73
b0 74
b0 75
b0 76
b0 77
b0 78
b0 79
b0 7a
b0 7b
b0 7c
b0 7d
b0 7e
b0 7f
b0 80
b0 81
b0 82
b0 83
b0 84
b0 85
b0 86
b0 87
b0 88
b0 89
b0 8a
b0 8b
b0 8c
b0 8d
b0 8e
b0 8f
b0 90
b0 91
b0 92
b0 93
b0 94
095
096
b0 97
b0 98
099
$end
#50
121
16
113
195
12d
#100
021
06
013
095
02d
#150
121
16
113
195
12d
#151
b10111011001010010010001100001100111111111 1
b101001 2
10
110
17
b1010010000000000000000000000000000000000000000000000000000000000000000000000000000000000010111011001010010010001100001100111111111 8
b1010010000000000000000000000000000000000000000000000000000000000000000000000000000000000010111011001010010010001100001100111111111 f
b1010010000000000000000000000000000000000000000000000000000000000000000000000000000000000010111011001010010010001100001100111111111 1c
b1010010000000000000000000000000000000000000000000000000000000000000000000000000000000000010111011001010010010001100001100111111111 17
11d
118
b1010010000000000000000000000000000000000000000000000000000000000000000000000000000000000010111011001010010010001100001100111111111 27
b1010010000000000000000000000000000000000000000000000000000000000000000000000000000000000010111011001010010010001100001100111111111 30
12e
128
#200
021
06
013
095
02d
#249
121
16
113
195
12d
#251
b1111111100100011010001010010010000110001111111110010001101000101001001000011000111111111001000110100010100100100001100011000 1
b1111100 2
13
b1 25
b1 2b
b1010010000000000000000000000000000000000000000000000000000000000000000000000000000000000010111011001010010010001100001100111111111 32
b111111001111111100100011010001010010010000110001111111110010001101000101001001000011000111111111001000110100010100100100001100011000 8
b111111001111111100100011010001010010010000110001111111110010001101000101001001000011000111111111001000110100010100100100001100011000 f
b1 16
123
b1 2f
b1 26
b111111001111111100100011010001010010010000110001111111110010001101000101001001000011000111111111001000110100010100100100001100011000 1c
b111111001111111100100011010001010010010000110001111111110010001101000101001001000011000111111111001000110100010100100100001100011000 17
11f
11b
b111111001111111100100011010001010010010000110001111111110010001101000101001001000011000111111111001000110100010100100100001100011000 27
b111111001111111100100011010001010010010000110001111111110010001101000101001001000011000111111111001000110100010100100100001100011000 30
12a
196
#299
021
06
013
095
02d
#349
121
16
113
195
12d
#350
00
115
b10 2b
b1 2c
b111111001111111100100011010001010010010000110001111111110010001101000101001001000011000111111111001000110100010100100100001100011000 33
b1010010000000000000000000000000000000000000000000000000000000000000000000000000000000000010111011001010010010001100001100111111111 98
010
07
19
b10 16
01f
01b
b1010010000000000000000000000000000000000000000000000000000000000000000000000000000000000010111011001010010010001100001100111111111 24
b10 2f
b10 26
b1 29
b1 97
b1010010000000000000000000000000000000000000000000000000000000000000000000000000000000000010111011001010010010001100001100111111111 14
01d
018
02a
096
b10111011001010010010001100001100111111111 a
b101001 b
02e
028
#399
021
06
013
095
02d
#449
121
16
113
195
12d
#450
14
1d
111
11f
11b
12a
196
#499
021
06
013
095
02d
#549
121
16
113
195
12d
#550
04
b0 25
b10 2c
b111111001111111100100011010001010010010000110001111111110010001101000101001001000011000111111111001000110100010100100100001100011000 98
0d
011
b1 16
023
b111111001111111100100011010001010010010000110001111111110010001101000101001001000011000111111111001000110100010100100100001100011000 24
b10 29
b10 97
b111111001111111100100011010001010010010000110001111111110010001101000101001001000011000111111111001000110100010100100100001100011000 14
01f
01b
b1111111100100011010001010010010000110001111111110010001101000101001001000011000111111111001000110100010100100100001100011000 a
b1111100 b
1c
02a
096
#599
021
06
013
095
02d
#650
121
16
113
195
12d
14
1d
111
#700
021
06
013
095
02d
#750
121
16
113
195
12d
#751
04
015
09
0d
011
b0 16
#800
021
06
013
095
02d
#850
121
16
113
195
12d
#900
021
06
013
095
02d
#950
121
16
113
195
12d
#951
b10111011001010010010001100001100111111111 1
b101001 2
03
10
110
17
b1010010000000000000000000000000000000000000000000000000000000000000000000000000000000000010111011001010010010001100001100111111111 8
b1010010000000000000000000000000000000000000000000000000000000000000000000000000000000000010111011001010010010001100001100111111111 f
b1010010000000000000000000000000000000000000000000000000000000000000000000000000000000000010111011001010010010001100001100111111111 1c
b1010010000000000000000000000000000000000000000000000000000000000000000000000000000000000010111011001010010010001100001100111111111 17
11d
118
b1010010000000000000000000000000000000000000000000000000000000000000000000000000000000000010111011001010010010001100001100111111111 27
b1010010000000000000000000000000000000000000000000000000000000000000000000000000000000000010111011001010010010001100001100111111111 30
12e
128
#1000
021
06
013
095
02d
#1050
121
16
113
195
12d
#1051
b1 25
b11 2b
b1010010000000000000000000000000000000000000000000000000000000000000000000000000000000000010111011001010010010001100001100111111111 34
b1 16
123
b11 2f
b11 26
11f
11b
12a
196
#1100
021
06
013
095
02d
#1150
121
16
113
195
12d
#1151
115
b100 2b
b11 2c
b1010010000000000000000000000000000000000000000000000000000000000000000000000000000000000010111011001010010010001100001100111111111 35
b1010010000000000000000000000000000000000000000000000000000000000000000000000000000000000010111011001010010010001100001100111111111 98
19
b10 16
01f
01b
b1010010000000000000000000000000000000000000000000000000000000000000000000000000000000000010111011001010010010001100001100111111111 24
b100 2f
b100 26
b11 29
b11 97
b1010010000000000000000000000000000000000000000000000000000000000000000000000000000000000010111011001010010010001100001100111111111 14
02a
096
b10111011001010010010001100001100111111111 a
b101001 b
0c
#1200
021
06
013
095
02d
#1250
121
16
113
195
12d
#1251
b10 25
b101 2b
b1010010000000000000000000000000000000000000000000000000000000000000000000000000000000000010111011001010010010001100001100111111111 36
b11 16
b101 2f
b101 26
#1300
021
06
013
095
02d
#1350
121
16
113
195
12d
#1351
b11 25
b110 2b
b1010010000000000000000000000000000000000000000000000000000000000000000000000000000000000010111011001010010010001100001100111111111 37
b100 16
b110 2f
b110 26
#1400
021
06
013
095
02d
#1450
121
16
113
195
12d
#1451
b100 25
b111 2b
b1010010000000000000000000000000000000000000000000000000000000000000000000000000000000000010111011001010010010001100001100111111111 38
b101 16
b111 2f
b111 26
#1500
021
06
013
095
02d
#1550
121
16
113
195
12d
#1551
b101 25
b1000 2b
b1010010000000000000000000000000000000000000000000000000000000000000000000000000000000000010111011001010010010001100001100111111111 39
b110 16
b1000 2f
b1000 26
#1600
021
06
013
095
02d
#1650
121
16
113
195
12d
#1651
b110 25
b1001 2b
b1010010000000000000000000000000000000000000000000000000000000000000000000000000000000000010111011001010010010001100001100111111111 3a
b111 16
b1001 2f
b1001 26
#1700
021
06
013
095
02d
#1750
121
16
113
195
12d
#1751
b111 25
b1010 2b
b1010010000000000000000000000000000000000000000000000000000000000000000000000000000000000010111011001010010010001100001100111111111 3b
b1000 16
b1010 2f
b1010 26
#1800
021
06
013
095
02d
#1850
121
16
113
195
12d
#1851
b1000 25
b1011 2b
b1010010000000000000000000000000000000000000000000000000000000000000000000000000000000000010111011001010010010001100001100111111111 3c
b1001 16
b1011 2f
b1011 26
#1900
021
06
013
095
02d
#1950
121
16
113
195
12d
#1951
b1001 25
b1100 2b
b1010010000000000000000000000000000000000000000000000000000000000000000000000000000000000010111011001010010010001100001100111111111 3d
b1010 16
b1100 2f
b1100 26
#2000
021
06
013
095
02d
#2050
121
16
113
195
12d
#2051
b1010 25
b1101 2b
b1010010000000000000000000000000000000000000000000000000000000000000000000000000000000000010111011001010010010001100001100111111111 3e
b1011 16
b1101 2f
b1101 26
#2100
021
06
013
095
02d
#2150
121
16
113
195
12d
#2151
b1011 25
b1110 2b
b1010010000000000000000000000000000000000000000000000000000000000000000000000000000000000010111011001010010010001100001100111111111 3f
b1100 16
b1110 2f
b1110 26
#2200
021
06
013
095
02d
#2250
121
16
113
195
12d
#2251
b1100 25
b1111 2b
b1010010000000000000000000000000000000000000000000000000000000000000000000000000000000000010111011001010010010001100001100111111111 40
b1101 16
b1111 2f
b1111 26
#2300
021
06
013
095
02d
#2350
121
16
113
195
12d
#2351
b1101 25
b10000 2b
b1010010000000000000000000000000000000000000000000000000000000000000000000000000000000000010111011001010010010001100001100111111111 41
b1110 16
b10000 2f
b10000 26
#2400
021
06
013
095
02d
#2450
121
16
113
195
12d
#2451
b1110 25
b10001 2b
b1010010000000000000000000000000000000000000000000000000000000000000000000000000000000000010111011001010010010001100001100111111111 42
b1111 16
b10001 2f
b10001 26
#2500
021
06
013
095
02d
#2550
121
16
113
195
12d
#2551
b1111 25
b10010 2b
b1010010000000000000000000000000000000000000000000000000000000000000000000000000000000000010111011001010010010001100001100111111111 43
b10000 16
b10010 2f
b10010 26
#2600
021
06
013
095
02d
#2650
121
16
113
195
12d
#2651
b10000 25
b10011 2b
b1010010000000000000000000000000000000000000000000000000000000000000000000000000000000000010111011001010010010001100001100111111111 44
b10001 16
b10011 2f
b10011 26
#2700
021
06
013
095
02d
#2750
121
16
113
195
12d
#2751
b10001 25
b10100 2b
b1010010000000000000000000000000000000000000000000000000000000000000000000000000000000000010111011001010010010001100001100111111111 45
b10010 16
b10100 2f
b10100 26
#2800
021
06
013
095
02d
#2850
121
16
113
195
12d
#2851
b10010 25
b10101 2b
b1010010000000000000000000000000000000000000000000000000000000000000000000000000000000000010111011001010010010001100001100111111111 46
b10011 16
b10101 2f
b10101 26
#2900
021
06
013
095
02d
#2950
121
16
113
195
12d
#2951
b10011 25
b10110 2b
b1010010000000000000000000000000000000000000000000000000000000000000000000000000000000000010111011001010010010001100001100111111111 47
b10100 16
b10110 2f
b10110 26
#3000
021
06
013
095
02d
#3050
121
16
113
195
12d
#3051
b10100 25
b10111 2b
b1010010000000000000000000000000000000000000000000000000000000000000000000000000000000000010111011001010010010001100001100111111111 48
b10101 16
b10111 2f
b10111 26
#3100
021
06
013
095
02d
#3150
121
16
113
195
12d
#3151
b10101 25
b11000 2b
b1010010000000000000000000000000000000000000000000000000000000000000000000000000000000000010111011001010010010001100001100111111111 49
b10110 16
b11000 2f
b11000 26
#3200
021
06
013
095
02d
#3250
121
16
113
195
12d
#3251
b10110 25
b11001 2b
b1010010000000000000000000000000000000000000000000000000000000000000000000000000000000000010111011001010010010001100001100111111111 4a
b10111 16
b11001 2f
b11001 26
#3300
021
06
013
095
02d
#3350
121
16
113
195
12d
#3351
b10111 25
b11010 2b
b1010010000000000000000000000000000000000000000000000000000000000000000000000000000000000010111011001010010010001100001100111111111 4b
b11000 16
b11010 2f
b11010 26
#3400
021
06
013
095
02d
#3450
121
16
113
195
12d
#3451
b11000 25
b11011 2b
b1010010000000000000000000000000000000000000000000000000000000000000000000000000000000000010111011001010010010001100001100111111111 4c
b11001 16
b11011 2f
b11011 26
#3500
021
06
013
095
02d
#3550
121
16
113
195
12d
#3551
b11001 25
b11100 2b
b1010010000000000000000000000000000000000000000000000000000000000000000000000000000000000010111011001010010010001100001100111111111 4d
b11010 16
b11100 2f
b11100 26
#3600
021
06
013
095
02d
#3650
121
16
113
195
12d
#3651
b11010 25
b11101 2b
b1010010000000000000000000000000000000000000000000000000000000000000000000000000000000000010111011001010010010001100001100111111111 4e
b11011 16
b11101 2f
b11101 26
#3700
021
06
013
095
02d
#3750
121
16
113
195
12d
#3751
b11011 25
b11110 2b
b1010010000000000000000000000000000000000000000000000000000000000000000000000000000000000010111011001010010010001100001100111111111 4f
b11100 16
b11110 2f
b11110 26
#3800
021
06
013
095
02d
#3850
121
16
113
195
12d
#3851
b11100 25
b11111 2b
b1010010000000000000000000000000000000000000000000000000000000000000000000000000000000000010111011001010010010001100001100111111111 50
b11101 16
b11111 2f
b11111 26
#3900
021
06
013
095
02d
#3950
121
16
113
195
12d
#3951
b11101 25
b100000 2b
b1010010000000000000000000000000000000000000000000000000000000000000000000000000000000000010111011001010010010001100001100111111111 51
b11110 16
b100000 2f
b100000 26
#4000
021
06
013
095
02d
#4050
121
16
113
195
12d
#4051
b11110 25
b100001 2b
b1010010000000000000000000000000000000000000000000000000000000000000000000000000000000000010111011001010010010001100001100111111111 52
b11111 16
b100001 2f
b100001 26
#4100
021
06
013
095
02d
#4150
121
16
113
195
12d
#4151
b11111 25
b100010 2b
b1010010000000000000000000000000000000000000000000000000000000000000000000000000000000000010111011001010010010001100001100111111111 53
b100000 16
b100010 2f
b100010 26
#4200
021
06
013
095
02d
#4250
121
16
113
195
12d
#4251
b100000 25
b100011 2b
b1010010000000000000000000000000000000000000000000000000000000000000000000000000000000000010111011001010010010001100001100111111111 54
b100001 16
b100011 2f
b100011 26
#4300
021
06
013
095
02d
#4350
121
16
113
195
12d
#4351
b100001 25
b100100 2b
b1010010000000000000000000000000000000000000000000000000000000000000000000000000000000000010111011001010010010001100001100111111111 55
b100010 16
b100100 2f
b100100 26
#4400
021
06
013
095
02d
#4450
121
16
113
195
12d
#4451
b100010 25
b100101 2b
b1010010000000000000000000000000000000000000000000000000000000000000000000000000000000000010111011001010010010001100001100111111111 56
b100011 16
b100101 2f
b100101 26
#4500
021
06
013
095
02d
#4550
121
16
113
195
12d
#4551
b100011 25
b100110 2b
b1010010000000000000000000000000000000000000000000000000000000000000000000000000000000000010111011001010010010001100001100111111111 57
b100100 16
b100110 2f
b100110 26
#4600
021
06
013
095
02d
#4650
121
16
113
195
12d
#4651
b100100 25
b100111 2b
b1010010000000000000000000000000000000000000000000000000000000000000000000000000000000000010111011001010010010001100001100111111111 58
b100101 16
b100111 2f
b100111 26
#4700
021
06
013
095
02d
#4750
121
16
113
195
12d
#4751
b100101 25
b101000 2b
b1010010000000000000000000000000000000000000000000000000000000000000000000000000000000000010111011001010010010001100001100111111111 59
b100110 16
b101000 2f
b101000 26
#4800
021
06
013
095
02d
#4850
121
16
113
195
12d
#4851
b100110 25
b101001 2b
b1010010000000000000000000000000000000000000000000000000000000000000000000000000000000000010111011001010010010001100001100111111111 5a
b100111 16
b101001 2f
b101001 26
#4900
021
06
013
095
02d
#4950
121
16
113
195
12d
#4951
b100111 25
b101010 2b
b1010010000000000000000000000000000000000000000000000000000000000000000000000000000000000010111011001010010010001100001100111111111 5b
b101000 16
b101010 2f
b101010 26
#5000
021
06
013
095
02d
#5050
121
16
113
195
12d
#5051
b101000 25
b101011 2b
b1010010000000000000000000000000000000000000000000000000000000000000000000000000000000000010111011001010010010001100001100111111111 5c
b101001 16
b101011 2f
b101011 26
#5100
021
06
013
095
02d
#5150
121
16
113
195
12d
#5151
b101001 25
b101100 2b
b1010010000000000000000000000000000000000000000000000000000000000000000000000000000000000010111011001010010010001100001100111111111 5d
b101010 16
b101100 2f
b101100 26
#5200
021
06
013
095
02d
#5249
121
16
113
195
12d
#5250
b101010 25
b101101 2b
b1010010000000000000000000000000000000000000000000000000000000000000000000000000000000000010111011001010010010001100001100111111111 5e
b101011 16
b101101 2f
b101101 26
#5299
021
06
013
095
02d
#5349
121
16
113
195
12d
#5350
b101011 25
b101110 2b
b1010010000000000000000000000000000000000000000000000000000000000000000000000000000000000010111011001010010010001100001100111111111 5f
b101100 16
b101110 2f
b101110 26
#5399
021
06
013
095
02d
#5449
121
16
113
195
12d
#5450
b101100 25
b101111 2b
b1010010000000000000000000000000000000000000000000000000000000000000000000000000000000000010111011001010010010001100001100111111111 60
b101101 16
b101111 2f
b101111 26
#5499
021
06
013
095
02d
#5549
121
16
113
195
12d
#5550
b101101 25
b110000 2b
b1010010000000000000000000000000000000000000000000000000000000000000000000000000000000000010111011001010010010001100001100111111111 61
b101110 16
b110000 2f
b110000 26
#5599
021
06
013
095
02d
#5649
121
16
113
195
12d
#5650
b101110 25
b110001 2b
b1010010000000000000000000000000000000000000000000000000000000000000000000000000000000000010111011001010010010001100001100111111111 62
b101111 16
b110001 2f
b110001 26
#5699
021
06
013
095
02d
#5749
121
16
113
195
12d
#5750
b101111 25
b110010 2b
b1010010000000000000000000000000000000000000000000000000000000000000000000000000000000000010111011001010010010001100001100111111111 63
b110000 16
b110010 2f
b110010 26
#5799
021
06
013
095
02d
#5849
121
16
113
195
12d
#5850
b110000 25
b110011 2b
b1010010000000000000000000000000000000000000000000000000000000000000000000000000000000000010111011001010010010001100001100111111111 64
b110001 16
b110011 2f
b110011 26
#5899
021
06
013
095
02d
#5949
121
16
113
195
12d
#5950
b110001 25
b110100 2b
b1010010000000000000000000000000000000000000000000000000000000000000000000000000000000000010111011001010010010001100001100111111111 65
b110010 16
b110100 2f
b110100 26
#5999
021
06
013
095
02d
#6049
121
16
113
195
12d
#6050
b110010 25
b110101 2b
b1010010000000000000000000000000000000000000000000000000000000000000000000000000000000000010111011001010010010001100001100111111111 66
b110011 16
b110101 2f
b110101 26
#6099
021
06
013
095
02d
#6149
121
16
113
195
12d
#6150
b110011 25
b110110 2b
b1010010000000000000000000000000000000000000000000000000000000000000000000000000000000000010111011001010010010001100001100111111111 67
b110100 16
b110110 2f
b110110 26
#6199
021
06
013
095
02d
#6249
121
16
113
195
12d
#6250
b110100 25
b110111 2b
b1010010000000000000000000000000000000000000000000000000000000000000000000000000000000000010111011001010010010001100001100111111111 68
b110101 16
b110111 2f
b110111 26
#6299
021
06
013
095
02d
#6349
121
16
113
195
12d
#6350
b110101 25
b111000 2b
b1010010000000000000000000000000000000000000000000000000000000000000000000000000000000000010111011001010010010001100001100111111111 69
b110110 16
b111000 2f
b111000 26
#6399
021
06
013
095
02d
#6449
121
16
113
195
12d
#6450
b110110 25
b111001 2b
b1010010000000000000000000000000000000000000000000000000000000000000000000000000000000000010111011001010010010001100001100111111111 6a
b110111 16
b111001 2f
b111001 26
#6499
021
06
013
095
02d
#6549
121
16
113
195
12d
#6550
b110111 25
b111010 2b
b1010010000000000000000000000000000000000000000000000000000000000000000000000000000000000010111011001010010010001100001100111111111 6b
b111000 16
b111010 2f
b111010 26
#6599
021
06
013
095
02d
#6649
121
16
113
195
12d
#6650
b111000 25
b111011 2b
b1010010000000000000000000000000000000000000000000000000000000000000000000000000000000000010111011001010010010001100001100111111111 6c
b111001 16
b111011 2f
b111011 26
#6699
021
06
013
095
02d
#6749
121
16
113
195
12d
#6750
b111001 25
b111100 2b
b1010010000000000000000000000000000000000000000000000000000000000000000000000000000000000010111011001010010010001100001100111111111 6d
b111010 16
b111100 2f
b111100 26
#6799
021
06
013
095
02d
#6849
121
16
113
195
12d
#6850
b111010 25
b111101 2b
b1010010000000000000000000000000000000000000000000000000000000000000000000000000000000000010111011001010010010001100001100111111111 6e
b111011 16
b111101 2f
b111101 26
#6899
021
06
013
095
02d
#6949
121
16
113
195
12d
#6950
b111011 25
b111110 2b
b1010010000000000000000000000000000000000000000000000000000000000000000000000000000000000010111011001010010010001100001100111111111 6f
b111100 16
b111110 2f
b111110 26
#6999
021
06
013
095
02d
#7049
121
16
113
195
12d
#7050
b111100 25
b111111 2b
b1010010000000000000000000000000000000000000000000000000000000000000000000000000000000000010111011001010010010001100001100111111111 70
b111101 16
b111111 2f
b111111 26
#7099
021
06
013
095
02d
#7149
121
16
113
195
12d
#7150
b111101 25
b1000000 2b
b1010010000000000000000000000000000000000000000000000000000000000000000000000000000000000010111011001010010010001100001100111111111 71
b111110 16
b1000000 2f
b1000000 26
#7199
021
06
013
095
02d
#7249
121
16
113
195
12d
#7250
b111110 25
b1000001 2b
b1010010000000000000000000000000000000000000000000000000000000000000000000000000000000000010111011001010010010001100001100111111111 72
b111111 16
b1000001 2f
b1000001 26
#7299
021
06
013
095
02d
#7349
121
16
113
195
12d
#7350
b111111 25
b1000010 2b
b1010010000000000000000000000000000000000000000000000000000000000000000000000000000000000010111011001010010010001100001100111111111 73
b1000000 16
b1000010 2f
b1000010 26
#7399
021
06
013
095
02d
#7449
121
16
113
195
12d
#7450
b1000000 25
b1000011 2b
b1010010000000000000000000000000000000000000000000000000000000000000000000000000000000000010111011001010010010001100001100111111111 74
b1000001 16
b1000011 2f
b1000011 26
#7499
021
06
013
095
02d
#7549
121
16
113
195
12d
#7550
b1000001 25
b1000100 2b
b1010010000000000000000000000000000000000000000000000000000000000000000000000000000000000010111011001010010010001100001100111111111 75
b1000010 16
b1000100 2f
b1000100 26
#7599
021
06
013
095
02d
#7649
121
16
113
195
12d
#7650
b1000010 25
b1000101 2b
b1010010000000000000000000000000000000000000000000000000000000000000000000000000000000000010111011001010010010001100001100111111111 76
b1000011 16
b1000101 2f
b1000101 26
#7699
021
06
013
095
02d
#7749
121
16
113
195
12d
#7750
b1000011 25
b1000110 2b
b1010010000000000000000000000000000000000000000000000000000000000000000000000000000000000010111011001010010010001100001100111111111 77
b1000100 16
b1000110 2f
b1000110 26
#7799
021
06
013
095
02d
#7849
121
16
113
195
12d
#7850
b1000100 25
b1000111 2b
b1010010000000000000000000000000000000000000000000000000000000000000000000000000000000000010111011001010010010001100001100111111111 78
b1000101 16
b1000111 2f
b1000111 26
#7899
021
06
013
095
02d
#7949
121
16
113
195
12d
#7950
b1000101 25
b1001000 2b
b1010010000000000000000000000000000000000000000000000000000000000000000000000000000000000010111011001010010010001100001100111111111 79
b1000110 16
b1001000 2f
b1001000 26
#7999
021
06
013
095
02d
#8049
121
16
113
195
12d
#8050
b1000110 25
b1001001 2b
b1010010000000000000000000000000000000000000000000000000000000000000000000000000000000000010111011001010010010001100001100111111111 7a
b1000111 16
b1001001 2f
b1001001 26
#8099
021
06
013
095
02d
#8149
121
16
113
195
12d
#8150
b1000111 25
b1001010 2b
b1010010000000000000000000000000000000000000000000000000000000000000000000000000000000000010111011001010010010001100001100111111111 7b
b1001000 16
b1001010 2f
b1001010 26
#8199
021
06
013
095
02d
#8249
121
16
113
195
12d
#8250
b1001000 25
b1001011 2b
b1010010000000000000000000000000000000000000000000000000000000000000000000000000000000000010111011001010010010001100001100111111111 7c
b1001001 16
b1001011 2f
b1001011 26
#8299
021
06
013
095
02d
#8349
121
16
113
195
12d
#8350
b1001001 25
b1001100 2b
b1010010000000000000000000000000000000000000000000000000000000000000000000000000000000000010111011001010010010001100001100111111111 7d
b1001010 16
b1001100 2f
b1001100 26
#8399
021
06
013
095
02d
#8449
121
16
113
195
12d
#8450
b1001010 25
b1001101 2b
b1010010000000000000000000000000000000000000000000000000000000000000000000000000000000000010111011001010010010001100001100111111111 7e
b1001011 16
b1001101 2f
b1001101 26
#8499
021
06
013
095
02d
#8549
121
16
113
195
12d
#8550
b1001011 25
b1001110 2b
b1010010000000000000000000000000000000000000000000000000000000000000000000000000000000000010111011001010010010001100001100111111111 7f
b1001100 16
b1001110 2f
b1001110 26
#8599
021
06
013
095
02d
#8649
121
16
113
195
12d
#8650
b1001100 25
b1001111 2b
b1010010000000000000000000000000000000000000000000000000000000000000000000000000000000000010111011001010010010001100001100111111111 80
b1001101 16
b1001111 2f
b1001111 26
#8699
021
06
013
095
02d
#8749
121
16
113
195
12d
#8750
b1001101 25
b1010000 2b
b1010010000000000000000000000000000000000000000000000000000000000000000000000000000000000010111011001010010010001100001100111111111 81
b1001110 16
b1010000 2f
b1010000 26
#8799
021
06
013
095
02d
#8849
121
16
113
195
12d
#8850
b1001110 25
b1010001 2b
b1010010000000000000000000000000000000000000000000000000000000000000000000000000000000000010111011001010010010001100001100111111111 82
b1001111 16
b1010001 2f
b1010001 26
#8899
021
06
013
095
02d
#8949
121
16
113
195
12d
#8950
b1001111 25
b1010010 2b
b1010010000000000000000000000000000000000000000000000000000000000000000000000000000000000010111011001010010010001100001100111111111 83
b1010000 16
b1010010 2f
b1010010 26
#8999
021
06
013
095
02d
#9049
121
16
113
195
12d
#9050
00
b1010000 25
b1010011 2b
b1010010000000000000000000000000000000000000000000000000000000000000000000000000000000000010111011001010010010001100001100111111111 84
010
07
b1010001 16
b1010011 2f
b1010011 26
01d
018
02e
028
#9099
021
06
013
095
02d
#9149
121
16
113
195
12d
#9150
1e
#9199
021
06
013
095
02d
#9249
121
16
113
195
12d
#9250
14
1d
111
11f
11b
12a
196
#9299
021
06
013
095
02d
