simulations/markers_test_1.vcd
$comment Generated by nMigen $end
$date 2019-08-24 07:05:50.202906 $end
$timescale 100 ps $end
$scope module top $end
$var wire 1 0 i_busy $end
$var wire 1 1 valid_in $end
$var wire 1 2 end_in $end
$var wire 1 3 force_end_in $end
$var wire 16 4 data_in $end
$var wire 1 5 rst $end
$var wire 1 6 clk $end
$var wire 1 7 o_busy $end
$var wire 1 8 valid_out $end
$var wire 1 9 end_out $end
$var wire 16 a data_out $end
$var wire 1 b end_cond $end
$var wire 4 c counter $end
$var string 1 d fsm_state $end
$upscope $end
$enddefinitions $end
#0
$dumpvars
00
01
02
03
b0 4
05
06
17
08
09
b0 a
0b
b0 c
sIDLE/0 d
$end
#50
16
#51
b1000 c
#100
06
#150
16
#200
06
#249
16
#299
06
#349
16
#399
06
#449
16
#499
06
#549
16
#599
06
#650
16
#700
06
#750
16
#800
06
#850
16
#900
06
#950
16
#1000
06
#1050
16
#1051
b100100011 4
11
#1100
06
#1150
16
#1151
sSTARING_MARKER/1 d
18
b1111111111111111 a
#1200
06
#1250
16
#1251
b111 c
#1300
06
#1350
16
#1351
b110 c
#1400
06
#1450
16
#1451
b101 c
#1500
06
#1550
16
#1551
b100 c
#1600
06
#1650
16
#1651
b11 c
#1700
06
#1750
16
#1751
b10 c
#1800
06
#1850
16
#1851
b1 c
#1900
06
#1950
16
#1951
b0 c
08
b0 a
#2000
06
#2050
16
#2051
b1000 c
sFRAME_HANDLING/2 d
07
18
b100100011 a
#2100
06
#2150
16
#2200
06
#2250
16
#2300
06
#2350
16
#2400
06
#2450
16
#2500
06
#2550
16
#2600
06
#2650
16
#2700
06
#2750
16
#2800
06
#2850
16
#2900
06
#2950
16
#3000
06
#3050
16
#3051
12
#3100
06
#3150
16
#3151
1b
17
08
b0 a
#3200
06
#3250
16
#3251
sENDING_MARKER/3 d
18
b1111111111111111 a
#3300
06
#3350
16
#3351
b111 c
#3400
06
#3450
16
#3451
b110 c
#3500
06
#3550
16
#3551
b101 c
#3600
06
#3650
16
#3651
b100 c
#3700
06
#3750
16
#3751
b11 c
#3800
06
#3850
16
#3851
b10 c
#3900
06
#3950
16
#3951
b1 c
19
#4000
06
#4050
16
#4051
b0 c
sDONE_NORMAL/4 d
