simulations/signals_test_1.vcd
$comment Generated by nMigen $end
$date 2019-05-29 08:05:48.785188 $end
$timescale 100 ps $end
$scope module top $end
$var wire 1 0 new_input $end
$var wire 16 1 width $end
$var wire 16 2 height $end
$var wire 1 3 rst $end
$var wire 1 4 clk $end
$var wire 16 5 width_temp $end
$var wire 16 6 height_temp $end
$var wire 1 7 new_row $end
$var string 1 8 fsm_state $end
$var wire 1 9 end_of_frame $end
$upscope $end
$enddefinitions $end
#0
$dumpvars
00
b0 1
b0 2
03
04
b0 5
b0 6
17
sIDLE/0 8
09
$end
#50
14
#100
04
#150
14
#151
b100 2
b1100 1
10
#200
04
#249
14
#251
b1000 5
b11 6
07
sLOOP/1 8
#299
04
#349
14
#350
b100 5
#399
04
#449
14
#450
b1100 5
b10 6
17
#499
04
#549
14
#550
b1000 5
07
#599
04
#650
14
b100 5
#700
04
#750
14
#751
b1100 5
b1 6
17
#800
04
#850
14
#851
b1000 5
07
#900
04
#950
14
#951
b100 5
#1000
04
#1050
14
#1051
b1100 5
b0 6
17
#1100
04
#1150
14
#1151
b1000 5
07
#1200
04
#1250
14
#1251
b100 5
#1300
04
#1350
14
#1351
00
b1100 5
b1111111111111111 6
17
sEND/2 8
19
